module rc_server

go 1.16

require (
	github.com/golang/protobuf v1.4.2 // indirect
	google.golang.org/genproto v0.0.0-20200806141610-86f49bd18e98 // indirect
	google.golang.org/grpc v1.32.0
	google.golang.org/protobuf v1.25.0
	gopkg.in/check.v1 v1.0.0-20201130134442-10cb98267c6c // indirect
	gopkg.in/yaml.v2 v2.4.0
)
